…
    ## file path:          /Users/Olya/Library/Caches/rnoaa/ghcnd/USS0023B17S.dly

    ## file last updated:  2019-10-01 10:12:56

    ## file min/max dates: 1999-09-01 / 2019-09-30

# group\_by

``` r
view(weather_df)
weather_df %>%
  group_by(name, month)
```

    ## # A tibble: 1,095 x 7
    ## # Groups:   name, month [36]
    ##    name           id          date       month       prcp  tmax  tmin
    ##    <chr>          <chr>       <date>     <date>     <dbl> <dbl> <dbl>
    ##  1 CentralPark_NY USW00094728 2017-01-01 2017-01-01     0   8.9   4.4
    ##  2 CentralPark_NY USW00094728 2017-01-02 2017-01-01    53   5     2.8
    ##  3 CentralPark_NY USW00094728 2017-01-03 2017-01-01   147   6.1   3.9
    ##  4 CentralPark_NY USW00094728 2017-01-04 2017-01-01     0  11.1   1.1
    ##  5 CentralPark_NY USW00094728 2017-01-05 2017-01-01     0   1.1  -2.7
    ##  6 CentralPark_NY USW00094728 2017-01-06 2017-01-01    13   0.6  -3.8
    ##  7 CentralPark_NY USW00094728 2017-01-07 2017-01-01    81  -3.2  -6.6
    ##  8 CentralPark_NY USW00094728 2017-01-08 2017-01-01     0  -3.8  -8.8
    ##  9 CentralPark_NY USW00094728 2017-01-09 2017-01-01     0  -4.9  -9.9
    ## 10 CentralPark_NY USW00094728 2017-01-10 2017-01-01     0   7.8  -6  
    ## # … with 1,085 more rows

``` r
weather_df %>% 
  group_by(name, month) %>% 
  summarize(n_obs = n())
```

    ## # A tibble: 36 x 3
    ## # Groups:   name [3]
    ##    name           month      n_obs
    ##    <chr>          <date>     <int>
    ##  1 CentralPark_NY 2017-01-01    31
    ##  2 CentralPark_NY 2017-02-01    28
    ##  3 CentralPark_NY 2017-03-01    31
    ##  4 CentralPark_NY 2017-04-01    30
    ##  5 CentralPark_NY 2017-05-01    31
    ##  6 CentralPark_NY 2017-06-01    30
    ##  7 CentralPark_NY 2017-07-01    31
    ##  8 CentralPark_NY 2017-08-01    31
    ##  9 CentralPark_NY 2017-09-01    30
    ## 10 CentralPark_NY 2017-10-01    31
    ## # … with 26 more rows
…
## general summaries

``` r
weather_df %>% 
  group_by(name, month) %>% 
  summarize(
    n = n(),
    mean_tmax = mean(tmax, na.rm = TRUE),
    sd_tmax = sd(tmax, na.rm = TRUE),
    median_prcp = median(prcp, na.rm = TRUE)
  )
```

    ## # A tibble: 36 x 6
    ## # Groups:   name [3]
    ##    name           month          n mean_tmax sd_tmax median_prcp
    ##    <chr>          <date>     <int>     <dbl>   <dbl>       <dbl>
    ##  1 CentralPark_NY 2017-01-01    31      5.98    5.43           0
    ##  2 CentralPark_NY 2017-02-01    28      9.28    6.02           0
    ##  3 CentralPark_NY 2017-03-01    31      8.22    6.44           0
    ##  4 CentralPark_NY 2017-04-01    30     18.3     5.85           0
    ##  5 CentralPark_NY 2017-05-01    31     20.1     5.40           0
    ##  6 CentralPark_NY 2017-06-01    30     26.3     4.65           0
    ##  7 CentralPark_NY 2017-07-01    31     28.7     3.29           0
    ##  8 CentralPark_NY 2017-08-01    31     27.2     2.91           0
    ##  9 CentralPark_NY 2017-09-01    30     25.4     3.78           0
    ## 10 CentralPark_NY 2017-10-01    31     21.8     3.97           0
    ## # … with 26 more rows
…
knitr::kable(digits = 1), only show one decimal in mean

# group mutates

``` r
weather_df %>% 
  group_by(name) %>%
  ungroup()
```

    ## # A tibble: 1,095 x 7
    ##    name           id          date       month       prcp  tmax  tmin
    ##    <chr>          <chr>       <date>     <date>     <dbl> <dbl> <dbl>
    ##  1 CentralPark_NY USW00094728 2017-01-01 2017-01-01     0   8.9   4.4
    ##  2 CentralPark_NY USW00094728 2017-01-02 2017-01-01    53   5     2.8
    ##  3 CentralPark_NY USW00094728 2017-01-03 2017-01-01   147   6.1   3.9
    ##  4 CentralPark_NY USW00094728 2017-01-04 2017-01-01     0  11.1   1.1
    ##  5 CentralPark_NY USW00094728 2017-01-05 2017-01-01     0   1.1  -2.7
    ##  6 CentralPark_NY USW00094728 2017-01-06 2017-01-01    13   0.6  -3.8
    ##  7 CentralPark_NY USW00094728 2017-01-07 2017-01-01    81  -3.2  -6.6
    ##  8 CentralPark_NY USW00094728 2017-01-08 2017-01-01     0  -3.8  -8.8
    ##  9 CentralPark_NY USW00094728 2017-01-09 2017-01-01     0  -4.9  -9.9
    ## 10 CentralPark_NY USW00094728 2017-01-10 2017-01-01     0   7.8  -6  
    ## # … with 1,085 more rows
…
